<?xml version="1.0" encoding="iso-8859-1"?>
<!-- Generator: Adobe Illustrator 19.0.0, SVG Export Plug-In . SVG Version: 6.00 Build 0)  -->
<svg version="1.1" id="Capa_1" xmlns="http://www.w3.org/2000/svg" xmlns:xlink="http://www.w3.org/1999/xlink" x="0px" y="0px"
	 viewBox="0 0 416 416" style="enable-background:new 0 0 416 416;" xml:space="preserve">
<path style="fill:#00FFB0;" d="M280,80v40c0,17.672-14.328,32-32,32H40c-17.672,0-32-14.328-32-32V80c0-17.672,14.328-32,32-32h208
	C265.672,48,280,62.328,280,80z"/>
<g>
	<path style="fill:#000A64;" d="M85.024,128.128c14.984,0,25.144-10.504,25.144-28.312c0-17.736-10.16-27.808-25.144-27.808
		S59.88,82,59.88,99.816S70.04,128.128,85.024,128.128z M85.024,84.328c6.496,0,10.496,5.664,10.496,15.488
		c0,9.832-4,15.984-10.496,15.984s-10.488-6.16-10.488-15.984C74.536,89.992,78.536,84.328,85.024,84.328z"/>
	<path style="fill:#000A64;" d="M163.584,99.816c0-19.144-11.328-26.808-27.808-26.808h-15.984v54.12h16.816
		C152.256,127.128,163.584,118.96,163.584,99.816z M134.112,115.632V84.496h0.832c7.832,0,13.992,2.656,13.992,15.312
		s-6.16,15.824-13.992,15.824H134.112z"/>
	<path style="fill:#000A64;" d="M187.52,109.968h6.664c11.328,0,21.648-5.744,21.648-18.984c0-13.648-9.992-17.976-21.648-17.976
		h-20.976v54.12h14.32v-17.16H187.52z M187.52,84.328h6c5.328,0,8.328,1.832,8.328,6.656s-2.664,7.664-8.328,7.664h-6V84.328z"/>
	<rect x="32" y="112" style="fill:#000A64;" width="16" height="16"/>
	<path style="fill:#000A64;" d="M333.656,2.344C332.16,0.84,330.128,0,328,0h-8H120C97.944,0,80,17.944,80,40H40
		C17.944,40,0,57.944,0,80v40c0,22.056,17.944,40,40,40h40v184c0,22.056,17.944,40,40,40h24c4.416,0,8-3.576,8-8s-3.584-8-8-8h-24
		c-13.232,0-24-10.768-24-24V160h152c22.056,0,40-17.944,40-40V80c0-22.056-17.944-40-40-40H96c0-13.232,10.768-24,24-24h192v48
		c0,22.056,17.944,40,40,40h48v240c0,13.232-10.768,24-24,24h-24c-4.424,0-8,3.576-8,8s3.576,8,8,8h24c22.056,0,40-17.944,40-40V96
		v-8c0-2.128-0.84-4.16-2.344-5.656L333.656,2.344z M248,56c13.232,0,24,10.768,24,24v40c0,13.232-10.768,24-24,24H40
		c-13.232,0-24-10.768-24-24V80c0-13.232,10.768-24,24-24H248z"/>
	<path style="fill:#000A64;" d="M296,416c22.056,0,40-17.944,40-40v-80c0-22.056-17.944-40-40-40h-96c-22.056,0-40,17.944-40,40v80
		c0,22.056,17.944,40,40,40H296z M176,376v-80c0-13.232,10.768-24,24-24h96c13.232,0,24,10.768,24,24v80c0,13.232-10.768,24-24,24
		h-96C186.768,400,176,389.232,176,376z"/>
	<path style="fill:#000A64;" d="M299.312,328L264,292.688l-48,48V376h35.312L299.312,328z M232,360v-12.688l32-32L276.688,328
		l-32,32H232z"/>
</g>
<g>
</g>
<g>
</g>
<g>
</g>
<g>
</g>
<g>
</g>
<g>
</g>
<g>
</g>
<g>
</g>
<g>
</g>
<g>
</g>
<g>
</g>
<g>
</g>
<g>
</g>
<g>
</g>
<g>
</g>
</svg>
